Text Mining (Tweets about Sprint)
…
data(stop_words)

We can do this using anti_join function.

tidy_text <- tidy_text %>%
  anti_join(stop_words)

## Joining, by = "word"

We can also use dplyrs count() to find the most common words in all the datasets as a whole

tidy_text %>%
  count(word, sort = TRUE)

## # A tibble: 38,767 x 2
##    word           n
##    <chr>      <int>
##  1 sprint     45952
##  2 https      30369
##  3 rt         19618
##  4 verizon    10389
##  5 amp         8013
##  6 sprintcare  7794
##  7 geico       5461
##  8 wellsfargo  4947
##  9 mobile      3912
## 10 download    3717
## # ... with 38,757 more rows
…
All of this information is tabulated in the sentiments dataset, and tidytext provides a function get_sentiments() to get specific sentiment lexicons without the columns that are not used in that lexicon.

look at the words with a joy score from the NRC lexicon.

nrcjoy <- get_sentiments("nrc") %>% 
  filter(sentiment == "joy")

tidy_text %>%
  inner_join(nrcjoy) %>%
  count(word, sort = TRUE)

## Joining, by = "word"

## # A tibble: 275 x 2
##    word      n
##    <chr> <int>
##  1 food   1212
##  2 pay     842
##  3 save    490
##  4 happy   452
##  5 money   388
##  6 love    373
##  7 deal    248
##  8 fun     218
##  9 hope    157
## 10 white   139
## # ... with 265 more rows
…
## [1] 1000 2398

lda <- LDA(tweet_dtm, k = 2, control = list(seed = 1234))
lda

## A LDA_VEM topic model with 2 topics.

library(tidytext)
lda_td <- tidy(lda)
lda_td

## # A tibble: 4,796 x 3
##    topic term         beta
##    <int> <chr>       <dbl>
##  1     1 casi    0.000239 
##  2     2 casi    0.000204 
##  3     1 del     0.000508 
##  4     2 del     0.000378 
##  5     1 entrada 0.000373 
##  6     2 entrada 0.0000700
##  7     1 fanhq   0.0159   
##  8     2 fanhq   0.000689 
##  9     1 gratis  0.000247 
## 10     2 gratis  0.000196 
## # ... with 4,786 more rows
…
